## Interface: 60200
## Title: Need Primal Spirits
## Version: 1.0
## Author: Snipy
## Notes: Automatically need, greed or pass on Primal Spirits.
## SavedVariables: NeedPrimalSpiritsDB

NeedPrimalSpirits.lua